module github.com/BeStateless/pulumi-megaport/sdk

go 1.19

//replace github.com/megaport/megaportgo => ../../megaportgo

replace github.com/BeStateless/pulumi-BeStateless/sdk/go/megaport => ../../megaportgo

replace github.com/pulumi/pulumi/sdk/v3 => github.com/pulumi/pulumi/sdk/v3 v3.68.0

require (
	github.com/BeStateless/pulumi-BeStateless/sdk/go/megaport v0.0.0-00010101000000-000000000000
	github.com/blang/semver v3.5.1+incompatible
	github.com/pulumi/pulumi/sdk/v3 v3.0.0-00010101000000-000000000000
)

require (
	github.com/Microsoft/go-winio v0.5.2 // indirect
	github.com/ProtonMail/go-crypto v0.0.0-20221026131551-cf6655e29de4 // indirect
	github.com/acomagu/bufpipe v1.0.3 // indirect
	github.com/aead/chacha20 v0.0.0-20180709150244-8b13a72661da // indirect
	github.com/agext/levenshtein v1.2.1 // indirect
	github.com/apparentlymart/go-textseg/v13 v13.0.0 // indirect
	github.com/cheggaaa/pb v1.0.29 // indirect
	github.com/cloudflare/circl v1.2.0 // indirect
	github.com/djherbis/times v1.5.0 // indirect
	github.com/emirpasic/gods v1.18.1 // indirect
	github.com/go-git/gcfg v1.5.0 // indirect
	github.com/go-git/go-billy/v5 v5.4.0 // indirect
	github.com/go-git/go-git/v5 v5.6.0 // indirect
	github.com/gofrs/uuid v4.2.0+incompatible // indirect
	github.com/gogo/protobuf v1.3.2 // indirect
	github.com/golang/glog v1.0.0 // indirect
	github.com/golang/protobuf v1.5.2 // indirect
	github.com/grpc-ecosystem/grpc-opentracing v0.0.0-20180507213350-8e809c8a8645 // indirect
	github.com/hashicorp/errwrap v1.1.0 // indirect
	github.com/hashicorp/go-multierror v1.1.1 // indirect
	github.com/hashicorp/hcl/v2 v2.16.1 // indirect
	github.com/imdario/mergo v0.3.13 // indirect
	github.com/inconshreveable/mousetrap v1.0.1 // indirect
	github.com/jbenet/go-context v0.0.0-20150711004518-d14ea06fba99 // indirect
	github.com/kevinburke/ssh_config v1.2.0 // indirect
	github.com/mattn/go-isatty v0.0.14 // indirect
	github.com/mattn/go-runewidth v0.0.13 // indirect
	github.com/mitchellh/go-ps v1.0.0 // indirect
	github.com/mitchellh/go-wordwrap v0.0.0-20150314170334-ad45545899c7 // indirect
	github.com/opentracing/basictracer-go v1.1.0 // indirect
	github.com/opentracing/opentracing-go v1.2.0 // indirect
	github.com/pjbgf/sha1cd v0.3.0 // indirect
	github.com/pkg/errors v0.9.1 // indirect
	github.com/pkg/term v1.1.0 // indirect
	github.com/rivo/uniseg v0.3.4 // indirect
	github.com/rogpeppe/go-internal v1.9.0 // indirect
	github.com/sabhiram/go-gitignore v0.0.0-20210923224102-525f6e181f06 // indirect
	github.com/santhosh-tekuri/jsonschema/v5 v5.0.0 // indirect
	github.com/sergi/go-diff v1.2.0 // indirect
	github.com/skeema/knownhosts v1.1.0 // indirect
	github.com/spf13/cast v1.5.0 // indirect
	github.com/spf13/cobra v1.6.1 // indirect
	github.com/spf13/pflag v1.0.5 // indirect
	github.com/texttheater/golang-levenshtein v1.0.1 // indirect
	github.com/tweekmonster/luser v0.0.0-20161003172636-3fa38070dbd7 // indirect
	github.com/uber/jaeger-client-go v2.30.0+incompatible // indirect
	github.com/uber/jaeger-lib v2.4.1+incompatible // indirect
	github.com/xanzy/ssh-agent v0.3.3 // indirect
	github.com/zclconf/go-cty v1.12.1 // indirect
	go.uber.org/atomic v1.10.0 // indirect
	golang.org/x/crypto v0.3.0 // indirect
	golang.org/x/net v0.7.0 // indirect
	golang.org/x/sys v0.5.0 // indirect
	golang.org/x/term v0.5.0 // indirect
	golang.org/x/text v0.7.0 // indirect
	google.golang.org/genproto v0.0.0-20220829175752-36a9c930ecbf // indirect
	google.golang.org/grpc v1.51.0 // indirect
	google.golang.org/protobuf v1.28.1 // indirect
	gopkg.in/warnings.v0 v0.1.2 // indirect
	gopkg.in/yaml.v3 v3.0.1 // indirect
	lukechampine.com/frand v1.4.2 // indirect
	sourcegraph.com/sourcegraph/appdash v0.0.0-20211028080628-e2786a622600 // indirect
)
